{
  "kind": "collectionType",
  "collectionName": "categories",
  "info": {
    "name": "category"
  },
  "options": {
    "increments": true,
    "timestamps": true,
    "draftAndPublish": true
  },
  "attributes": {
    "name": {
      "type": "string"
    },
    "doubt": {
      "via": "category",
      "model": "thread"
    }
  }
}
