{
  "kind": "collectionType",
  "collectionName": "comments",
  "info": {
    "name": "comments",
    "description": ""
  },
  "options": {
    "increments": true,
    "timestamps": true,
    "draftAndPublish": true
  },
  "attributes": {
    "content": {
      "type": "string"
    },
    "doubt": {
      "via": "comments",
      "model": "thread"
    },
    "explanation": {
      "via": "comments",
      "model": "explanations"
    },
    "users_permissions_user": {
      "plugin": "users-permissions",
      "model": "user"
    }
  }
}
